 {
    "_id": "_design/des",
    "language": "javascript",
    "views": {
        "getusers": {
            "map": "function(doc) {\nif (doc.type==\"user\")\n  emit(doc.username, doc);\n}"
        },
        "getimages": {
            "map": "function(doc) {\nif (doc.type==\"images\")\n  emit(doc.images,doc);\n}"
        }
    }
 }